\relax 
\catcode `"\active 
\select@language{brazil}
\@writefile{toc}{\select@language{brazil}}
\@writefile{lof}{\select@language{brazil}}
\@writefile{lot}{\select@language{brazil}}
\@writefile{lol}{\contentsline {lstlisting}{./resource/rogerio\textunderscore slides\textunderscore 61\textunderscore 62\textunderscore error.c}{1}}
\@writefile{loa}{\contentsline {algorithm}{\numberline {1}{\ignorespaces Pseudo-c\IeC {\'o}digo da implementa\IeC {\c c}\IeC {\~a}o paralela de multiplica\IeC {\c c}\IeC {\~a}o de matrizes quadradas: $C_{N \times N} = A_{N \times N} * B_{N \times N}$}}{3}}
\@writefile{lof}{\contentsline {figure}{\numberline {1}{\ignorespaces Exemplo de execu\IeC {\c c}\IeC {\~a}o do algoritmo paralelo de multiplica\IeC {\c c}\IeC {\~a}o de matriz com 4 threads, onde cada c\IeC {\'e}lula $i$, representa a multiplica\IeC {\c c}\IeC {\~a}o matricial da linha $i$. E cada linha ThreadID= $j$ representa as linhas da matriz que a thread $j$ ir\IeC {\'a} multiplicar.}}{4}}
\@writefile{lot}{\contentsline {table}{\numberline {1}{\ignorespaces Informa\IeC {\c c}\IeC {\~a}o do computador da rede ime utilizado no experimento}}{5}}
\@writefile{lof}{\contentsline {figure}{\numberline {2}{\ignorespaces Gr\IeC {\'a}fico da m\IeC {\'e}dia do tempo de execu\IeC {\c c}\IeC {\~a}o no computador da Rede IME}}{5}}
\@writefile{lot}{\contentsline {table}{\numberline {2}{\ignorespaces Medi\IeC {\c c}\IeC {\~a}o do tempo de execu\IeC {\c c}\IeC {\~a}o m\IeC {\'e}dio em segundos em rela\IeC {\c c}\IeC {\~a}o ao n\IeC {\'u}mero de Threads por tamanho da matriz}}{6}}
\@writefile{lot}{\contentsline {table}{\numberline {3}{\ignorespaces Medi\IeC {\c c}\IeC {\~a}o do \textit  {speedup} da m\IeC {\'e}dia do tempo de execu\IeC {\c c}\IeC {\~a}o por n\IeC {\'u}mero de thread.}}{6}}
\@writefile{lot}{\contentsline {table}{\numberline {4}{\ignorespaces Informa\IeC {\c c}\IeC {\~a}o do meu computador pessoal utilizado no experimento}}{7}}
\@writefile{lof}{\contentsline {figure}{\numberline {3}{\ignorespaces Gr\IeC {\'a}fico da m\IeC {\'e}dia do tempo de execu\IeC {\c c}\IeC {\~a}o no meu computador pessoal}}{7}}
\@writefile{lot}{\contentsline {table}{\numberline {5}{\ignorespaces Medi\IeC {\c c}\IeC {\~a}o do tempo de execu\IeC {\c c}\IeC {\~a}o m\IeC {\'e}dio em segundos em rela\IeC {\c c}\IeC {\~a}o ao n\IeC {\'u}mero de Threads por tamanho da matriz}}{8}}
\@writefile{lot}{\contentsline {table}{\numberline {6}{\ignorespaces Medi\IeC {\c c}\IeC {\~a}o do \textit  {speedup} da m\IeC {\'e}dia do tempo de execu\IeC {\c c}\IeC {\~a}o por n\IeC {\'u}mero de thread.}}{8}}
